Lab09/singlecycle.vcd
$date
	Wed Dec  7 15:02:16 2022
$end
$version
	Icarus Verilog
$end
$timescale
	1ps
$end
$scope module SingleCycleProcTest_v $end
$var wire 64 ! currentPC [63:0] $end
$var wire 64 " MemtoRegOut [63:0] $end
$var reg 1 # CLK $end
$var reg 1 $ Reset_L $end
$var reg 8 % passed [7:0] $end
$var reg 64 & startPC [63:0] $end
$var reg 16 ' watchdog [15:0] $end
$scope module uut $end
$var wire 1 # CLK $end
$var wire 1 $ resetl $end
$var wire 64 ( startpc [63:0] $end
$var wire 1 ) zero $end
$var wire 1 * uncond_branch $end
$var wire 3 + signop [2:0] $end
$var wire 26 , seInput [25:0] $end
$var wire 5 - rn [4:0] $end
$var wire 5 . rm [4:0] $end
$var wire 1 / regwrite $end
$var wire 64 0 regoutB [63:0] $end
$var wire 64 1 regoutA [63:0] $end
$var wire 1 2 reg2loc $end
$var wire 64 3 readData [63:0] $end
$var wire 5 4 rd [4:0] $end
$var wire 11 5 opcode [10:0] $end
$var wire 64 6 nextpc [63:0] $end
$var wire 1 7 memwrite $end
$var wire 1 8 memread $end
$var wire 1 9 mem2reg $end
$var wire 32 : instruction [31:0] $end
$var wire 64 ; extimm [63:0] $end
$var wire 1 < branch $end
$var wire 64 = alusrc_out [63:0] $end
$var wire 1 > alusrc $end
$var wire 64 ? aluout [63:0] $end
$var wire 4 @ aluctrl [3:0] $end
$var wire 64 A MemtoRegOut [63:0] $end
$var reg 64 B currentpc [63:0] $end
$scope module alu $end
$var wire 64 C BusB [63:0] $end
$var wire 1 ) Zero $end
$var wire 64 D BusA [63:0] $end
$var wire 4 E ALUCtrl [3:0] $end
$var reg 64 F BusW [63:0] $end
$upscope $end
$scope module control $end
$var wire 11 G opcode [10:0] $end
$var reg 4 H aluop [3:0] $end
$var reg 1 > alusrc $end
$var reg 1 < branch $end
$var reg 1 9 mem2reg $end
$var reg 1 8 memread $end
$var reg 1 7 memwrite $end
$var reg 1 2 reg2loc $end
$var reg 1 / regwrite $end
$var reg 3 I signop [2:0] $end
$var reg 1 * uncond_branch $end
$upscope $end
$scope module dmem $end
$var wire 64 J Address [63:0] $end
$var wire 1 # Clock $end
$var wire 1 8 MemoryRead $end
$var wire 1 7 MemoryWrite $end
$var wire 64 K WriteData [63:0] $end
$var reg 64 L ReadData [63:0] $end
$scope task initset $end
$var reg 64 M addr [63:0] $end
$var reg 64 N data [63:0] $end
$upscope $end
$upscope $end
$scope module imem $end
$var wire 64 O Address [63:0] $end
$var reg 32 P Data [31:0] $end
$upscope $end
$scope module pclogic $end
$var wire 1 ) ALUZero $end
$var wire 1 < Branch $end
$var wire 64 Q CurrentPC [63:0] $end
$var wire 1 * Uncondbranch $end
$var wire 1 R sel $end
$var wire 64 S SignExtImm64 [63:0] $end
$var wire 64 T NextPC [63:0] $end
$upscope $end
$scope module rf $end
$var wire 64 U BusW [63:0] $end
$var wire 1 # Clk $end
$var wire 5 V RA [4:0] $end
$var wire 5 W RB [4:0] $end
$var wire 5 X RW [4:0] $end
$var wire 1 / RegWr $end
$var wire 64 Y BusB [63:0] $end
$var wire 64 Z BusA [63:0] $end
$upscope $end
$scope module se $end
$var wire 3 [ Ctrl [2:0] $end
$var wire 26 \ Input [25:0] $end
$var wire 7 ] shift [6:0] $end
$var wire 64 ^ movz [63:0] $end
$var wire 1 _ extBit $end
$var wire 64 ` BusImm [63:0] $end
$upscope $end
$upscope $end
$scope task allPassed $end
$var reg 8 a numTests [7:0] $end
$var reg 8 b passed [7:0] $end
$upscope $end
$scope task passTest $end
$var reg 64 c actualOut [63:0] $end
$var reg 64 d expectedOut [63:0] $end
$var reg 8 e passed [7:0] $end
$var reg 257 f testType [256:0] $end
$upscope $end
$upscope $end
$enddefinitions $end
#0
$dumpvars
bx f
bx e
bx d
bx c
bx b
bx a
bx `
x_
bx ^
b0xx0000 ]
bx \
bx [
bx Z
bx Y
bx X
bx W
bx V
bx U
bx T
bx S
xR
bx Q
bx P
bx O
b0 N
b100000 M
bx L
bx K
bx J
bx I
bx H
bx G
bx F
bx E
bx D
bx C
bx B
bx A
bx @
bx ?
x>
bx =
x<
bx ;
bx :
x9
x8
x7
bx 6
bx 5
bx 4
bx 3
x2
bx 1
bx 0
x/
bx .
bx -
bx ,
bx +
x*
x)
b0 (
b0 '
b0 &
b0 %
1$
0#
bx "
bx !
$end
#60000
1#
#120000
b1 '
0#
#121000
0$
#180000
1#
#240000
b10 '
0#
#243000
b100 6
b100 T
b0 =
b0 C
0R
b1111100000000000000000000000000000000 ^
b100000 ]
0_
b0 ;
b0 S
b0 `
b10 @
b10 E
b10 H
b1 +
b1 I
b1 [
1/
1>
07
19
18
0<
0*
z2
b0x00x -
b0x00x W
b10000000000001111101001 ,
b10000000000001111101001 \
b11111000010 5
b11111000010 G
b11111 .
b11111 V
b1001 4
b1001 X
b11111000010000000000001111101001 :
b11111000010000000000001111101001 P
b0 !
b0 B
b0 O
b0 Q
#245000
1)
b0 ?
b0 F
b0 J
b0 1
b0 D
b0 Z
#300000
b1 "
b1 A
b1 U
b1 3
b1 L
1$
1#
#360000
b11 '
0#
#363000
0)
b1000 ?
b1000 F
b1000 J
b1000 =
b1000 C
b1000 ;
b1000 S
b1000 `
b1000001111100000000000000000000000000000000 ^
b0x0x0 -
b0x0x0 W
b10000001000001111101010 ,
b10000001000001111101010 \
b1010 4
b1010 X
b11111000010000001000001111101010 :
b11111000010000001000001111101010 P
b1000 6
b1000 T
b100 !
b100 B
b100 O
b100 Q
#420000
b1010 "
b1010 A
b1010 U
b1010 3
b1010 L
1#
#480000
b100 '
0#
#483000
b10000 ?
b10000 F
b10000 J
b10000 =
b10000 C
b10000 ;
b10000 S
b10000 `
b10000001111100000000000000000000000000000000 ^
b0x0x1 -
b0x0x1 W
b10000010000001111101011 ,
b10000010000001111101011 \
b1011 4
b1011 X
b11111000010000010000001111101011 :
b11111000010000010000001111101011 P
b1100 6
b1100 T
b1000 !
b1000 B
b1000 O
b1000 Q
#540000
b101 "
b101 A
b101 U
b101 3
b101 L
1#
#600000
b101 '
0#
#603000
b11000 ?
b11000 F
b11000 J
b11000 =
b11000 C
b11000 ;
b11000 S
b11000 `
b11000001111100000000000000000000000000000000 ^
b0xx0x -
b0xx0x W
b10000011000001111101100 ,
b10000011000001111101100 \
b1100 4
b1100 X
b11111000010000011000001111101100 :
b11111000010000011000001111101100 P
b10000 6
b10000 T
b1100 !
b1100 B
b1100 O
b1100 Q
#660000
b111111111011111010100111110111101010110110111110111011111111 "
b111111111011111010100111110111101010110110111110111011111111 A
b111111111011111010100111110111101010110110111110111011111111 U
b111111111011111010100111110111101010110110111110111011111111 3
b111111111011111010100111110111101010110110111110111011111111 L
1#
#720000
b110 '
0#
#723000
b100000 ?
b100000 F
b100000 J
b100000 =
b100000 C
b100000 ;
b100000 S
b100000 `
b100000001111100000000000000000000000000000000 ^
b0xxxx -
b0xxxx W
b10000100000001111101101 ,
b10000100000001111101101 \
b1101 4
b1101 X
b11111000010000100000001111101101 :
b11111000010000100000001111101101 P
b10100 6
b10100 T
b10000 !
b10000 B
b10000 O
b10000 Q
#780000
b0 "
b0 A
b0 U
b0 3
b0 L
1#
#840000
b111 '
0#
#843000
x)
b0 ]
bx ?
bx F
bx J
x_
bx0x0 ;
bx0x0 S
bx0x0 `
bx =
bx C
bx "
bx A
bx U
b101100000001010 ^
b1 @
b1 E
b1 H
bz +
bz I
bz [
0>
09
08
02
b1011 -
b1011 W
b10000010110000000101001010 ,
b10000010110000000101001010 \
b10101010000 5
b10101010000 G
b1010 .
b1010 V
b1010 4
b1010 X
b10101010000010110000000101001010 :
b10101010000010110000000101001010 P
b11000 6
b11000 T
b10100 !
b10100 B
b10100 O
b10100 Q
#845000
0)
b1111 "
b1111 A
b1111 U
b101 =
b101 C
b1111 ?
b1111 F
b1111 J
b101 0
b101 K
b101 Y
b1010 1
b1010 D
b1010 Z
#900000
1#
#960000
b1000 '
0#
#963000
1)
b0 "
b0 A
b0 U
bx0x0xx00 ;
bx0x0xx00 S
bx0x0xx00 `
b0 ?
b0 F
b0 J
b101000000001100 ^
b0 @
b0 E
b0 H
b1010 -
b1010 W
b10000010100000000110001100 ,
b10000010100000000110001100 \
b10001010000 5
b10001010000 G
b1100 .
b1100 V
b1100 4
b1100 X
b10001010000010100000000110001100 :
b10001010000010100000000110001100 P
b11100 6
b11100 T
b11000 !
b11000 B
b11000 O
b11000 Q
#965000
0)
b1111 "
b1111 A
b1111 U
b1111 =
b1111 C
b1111 ?
b1111 F
b1111 J
b1111 0
b1111 K
b1111 Y
b111111111011111010100111110111101010110110111110111011111111 1
b111111111011111010100111110111101010110110111110111011111111 D
b111111111011111010100111110111101010110110111110111011111111 Z
#1020000
1#
#1080000
b1001 '
0#
#1083000
0_
b100 ;
b100 S
b100 `
b0xxxx "
b0xxxx A
b0xxxx U
b100 ^
b111 @
b111 E
b111 H
b11 +
b11 I
b11 [
0/
z9
1<
12
b1100 -
b1100 W
b10001100 ,
b10001100 \
b10110100000 5
b10110100000 G
b100 .
b100 V
b10110100000000000000000010001100 :
b10110100000000000000000010001100 P
b100000 6
b100000 T
b11100 !
b11100 B
b11100 O
b11100 Q
#1085000
bx 1
bx D
bx Z
#1140000
1#
#1200000
b1010 '
0#
#1203000
x)
bx ?
bx F
bx J
x_
bx0x ;
bx0x S
bx0x `
bx "
bx A
bx U
b100100000001101 ^
b10 @
b10 E
b10 H
bz +
bz I
bz [
1/
09
0<
02
b1001 -
b1001 W
b11000010010000000110101101 ,
b11000010010000000110101101 \
b10001011000 5
b10001011000 G
b1101 .
b1101 V
b1101 4
b1101 X
b10001011000010010000000110101101 :
b10001011000010010000000110101101 P
b100100 6
b100100 T
b100000 !
b100000 B
b100000 O
b100000 Q
#1205000
0)
b1 "
b1 A
b1 U
b1 =
b1 C
b1 ?
b1 F
b1 J
b1 0
b1 K
b1 Y
b0 1
b0 D
b0 Z
#1260000
1#
#1320000
b1011 '
0#
#1323000
bx0xxx00 ;
bx0xxx00 S
bx0xxx00 `
b1111111111111111111111111111111111111111111111111111111111111111 "
b1111111111111111111111111111111111111111111111111111111111111111 A
b1111111111111111111111111111111111111111111111111111111111111111 U
b1111111111111111111111111111111111111111111111111111111111111111 ?
b1111111111111111111111111111111111111111111111111111111111111111 F
b1111111111111111111111111111111111111111111111111111111111111111 J
b100100000001100 ^
b110 @
b110 E
b110 H
b11000010010000000110001100 ,
b11000010010000000110001100 \
b11001011000 5
b11001011000 G
b1100 .
b1100 V
b1100 4
b1100 X
b11001011000010010000000110001100 :
b11001011000010010000000110001100 P
b101000 6
b101000 T
b100100 !
b100100 B
b100100 O
b100100 Q
#1325000
b1110 "
b1110 A
b1110 U
b1110 ?
b1110 F
b1110 J
b1111 1
b1111 D
b1111 Z
#1380000
1#
#1440000
b1100 '
0#
#1443000
b110000 ]
b110100101101001011010010110100101101001011010010110100101101001 ?
b110100101101001011010010110100101101001011010010110100101101001 F
b110100101101001011010010110100101101001011010010110100101101001 J
1_
b1111111111111111111111111111111111111111111111111111111111111101 ;
b1111111111111111111111111111111111111111111111111111111111111101 S
b1111111111111111111111111111111111111111111111111111111111111101 `
bx01 =
bx01 C
b0xx0x00x0xx0x00x0xx0x00x0xx0x00x0xx0x00x0xx0x00x0xx0x00x0xx0x00x "
b0xx0x00x0xx0x00x0xx0x00x0xx0x00x0xx0x00x0xx0x00x0xx0x00x0xx0x00x A
b0xx0x00x0xx0x00x0xx0x00x0xx0x00x0xx0x00x0xx0x00x0xx0x00x0xx0x00x U
1R
b1111111111111111000000000000000000000000000000000000000000000000 ^
bz @
bz E
bz H
b10 +
b10 I
b10 [
0/
z>
z9
z<
1*
z2
b111x1 -
b111x1 W
b11111111111111111111111101 ,
b11111111111111111111111101 \
b10111111 5
b10111111 G
b11111 .
b11111 V
b11101 4
b11101 X
b10111111111111111111111111101 :
b10111111111111111111111111101 P
b11100 6
b11100 T
b101000 !
b101000 B
b101000 O
b101000 Q
#1445000
bx =
bx C
bx 0
bx K
bx Y
b0 1
b0 D
b0 Z
#1500000
1#
#1560000
b1101 '
0#
#1563000
0_
b100 ;
b100 S
b100 `
x)
bx "
bx A
bx U
b0 ]
bx ?
bx F
bx J
xR
b100 ^
b111 @
b111 E
b111 H
b11 +
b11 I
b11 [
0>
1<
0*
12
b1100 -
b1100 W
b10001100 ,
b10001100 \
b10110100000 5
b10110100000 G
b100 .
b100 V
b1100 4
b1100 X
b10110100000000000000000010001100 :
b10110100000000000000000010001100 P
bx 6
bx T
b11100 !
b11100 B
b11100 O
b11100 Q
#1565000
b100000 6
b100000 T
0R
0)
b0xxx0 "
b0xxx0 A
b0xxx0 U
b1110 ?
b1110 F
b1110 J
b1110 =
b1110 C
b1110 0
b1110 K
b1110 Y
bx 1
bx D
bx Z
#1620000
1#
#1680000
b1110 '
0#
#1683000
x)
bx ?
bx F
bx J
x_
bx0x ;
bx0x S
bx0x `
bx "
bx A
bx U
b100100000001101 ^
b10 @
b10 E
b10 H
bz +
bz I
bz [
1/
09
0<
02
b1001 -
b1001 W
b11000010010000000110101101 ,
b11000010010000000110101101 \
b10001011000 5
b10001011000 G
b1101 .
b1101 V
b1101 4
b1101 X
b10001011000010010000000110101101 :
b10001011000010010000000110101101 P
b100100 6
b100100 T
b100000 !
b100000 B
b100000 O
b100000 Q
#1685000
0)
b10 "
b10 A
b10 U
b1 =
b1 C
b10 ?
b10 F
b10 J
b1 0
b1 K
b1 Y
b1 1
b1 D
b1 Z
#1740000
1#
#1800000
b1111 '
0#
#1803000
bx0xxx00 ;
bx0xxx00 S
bx0xxx00 `
1)
b0 "
b0 A
b0 U
b0 ?
b0 F
b0 J
b100100000001100 ^
b110 @
b110 E
b110 H
b11000010010000000110001100 ,
b11000010010000000110001100 \
b11001011000 5
b11001011000 G
b1100 .
b1100 V
b1100 4
b1100 X
b11001011000010010000000110001100 :
b11001011000010010000000110001100 P
b101000 6
b101000 T
b100100 !
b100100 B
b100100 O
b100100 Q
#1805000
0)
b1101 "
b1101 A
b1101 U
b1101 ?
b1101 F
b1101 J
b1110 1
b1110 D
b1110 Z
#1860000
1#
#1920000
b10000 '
0#
#1923000
b110000 ]
b110100101101001011010010110100101101001011010010110100101101001 ?
b110100101101001011010010110100101101001011010010110100101101001 F
b110100101101001011010010110100101101001011010010110100101101001 J
1_
b1111111111111111111111111111111111111111111111111111111111111101 ;
b1111111111111111111111111111111111111111111111111111111111111101 S
b1111111111111111111111111111111111111111111111111111111111111101 `
bx01 =
bx01 C
b0xx0x00x0xx0x00x0xx0x00x0xx0x00x0xx0x00x0xx0x00x0xx0x00x0xx0x00x "
b0xx0x00x0xx0x00x0xx0x00x0xx0x00x0xx0x00x0xx0x00x0xx0x00x0xx0x00x A
b0xx0x00x0xx0x00x0xx0x00x0xx0x00x0xx0x00x0xx0x00x0xx0x00x0xx0x00x U
1R
b1111111111111111000000000000000000000000000000000000000000000000 ^
bz @
bz E
bz H
b10 +
b10 I
b10 [
0/
z>
z9
z<
1*
z2
b111x1 -
b111x1 W
b11111111111111111111111101 ,
b11111111111111111111111101 \
b10111111 5
b10111111 G
b11111 .
b11111 V
b11101 4
b11101 X
b10111111111111111111111111101 :
b10111111111111111111111111101 P
b11100 6
b11100 T
b101000 !
b101000 B
b101000 O
b101000 Q
#1925000
bx =
bx C
bx 0
bx K
bx Y
b0 1
b0 D
b0 Z
#1980000
1#
#2040000
b10001 '
0#
#2043000
0_
b100 ;
b100 S
b100 `
x)
bx "
bx A
bx U
b0 ]
bx ?
bx F
bx J
xR
b100 ^
b111 @
b111 E
b111 H
b11 +
b11 I
b11 [
0>
1<
0*
12
b1100 -
b1100 W
b10001100 ,
b10001100 \
b10110100000 5
b10110100000 G
b100 .
b100 V
b1100 4
b1100 X
b10110100000000000000000010001100 :
b10110100000000000000000010001100 P
bx 6
bx T
b11100 !
b11100 B
b11100 O
b11100 Q
#2045000
b100000 6
b100000 T
0R
0)
b0xx0x "
b0xx0x A
b0xx0x U
b1101 ?
b1101 F
b1101 J
b1101 =
b1101 C
b1101 0
b1101 K
b1101 Y
bx 1
bx D
bx Z
#2100000
1#
#2160000
b10010 '
0#
#2163000
x)
bx ?
bx F
bx J
x_
bx0x ;
bx0x S
bx0x `
bx "
bx A
bx U
b100100000001101 ^
b10 @
b10 E
b10 H
bz +
bz I
bz [
1/
09
0<
02
b1001 -
b1001 W
b11000010010000000110101101 ,
b11000010010000000110101101 \
b10001011000 5
b10001011000 G
b1101 .
b1101 V
b1101 4
b1101 X
b10001011000010010000000110101101 :
b10001011000010010000000110101101 P
b100100 6
b100100 T
b100000 !
b100000 B
b100000 O
b100000 Q
#2165000
0)
b11 "
b11 A
b11 U
b1 =
b1 C
b11 ?
b11 F
b11 J
b1 0
b1 K
b1 Y
b10 1
b10 D
b10 Z
#2220000
1#
#2280000
b10011 '
0#
#2283000
bx0xxx00 ;
bx0xxx00 S
bx0xxx00 `
b1 "
b1 A
b1 U
b1 ?
b1 F
b1 J
b100100000001100 ^
b110 @
b110 E
b110 H
b11000010010000000110001100 ,
b11000010010000000110001100 \
b11001011000 5
b11001011000 G
b1100 .
b1100 V
b1100 4
b1100 X
b11001011000010010000000110001100 :
b11001011000010010000000110001100 P
b101000 6
b101000 T
b100100 !
b100100 B
b100100 O
b100100 Q
#2285000
b1100 "
b1100 A
b1100 U
b1100 ?
b1100 F
b1100 J
b1101 1
b1101 D
b1101 Z
#2340000
1#
#2400000
b10100 '
0#
#2403000
b110000 ]
b110100101101001011010010110100101101001011010010110100101101001 ?
b110100101101001011010010110100101101001011010010110100101101001 F
b110100101101001011010010110100101101001011010010110100101101001 J
1_
b1111111111111111111111111111111111111111111111111111111111111101 ;
b1111111111111111111111111111111111111111111111111111111111111101 S
b1111111111111111111111111111111111111111111111111111111111111101 `
bx01 =
bx01 C
b0xx0x00x0xx0x00x0xx0x00x0xx0x00x0xx0x00x0xx0x00x0xx0x00x0xx0x00x "
b0xx0x00x0xx0x00x0xx0x00x0xx0x00x0xx0x00x0xx0x00x0xx0x00x0xx0x00x A
b0xx0x00x0xx0x00x0xx0x00x0xx0x00x0xx0x00x0xx0x00x0xx0x00x0xx0x00x U
1R
b1111111111111111000000000000000000000000000000000000000000000000 ^
bz @
bz E
bz H
b10 +
b10 I
b10 [
0/
z>
z9
z<
1*
z2
b111x1 -
b111x1 W
b11111111111111111111111101 ,
b11111111111111111111111101 \
b10111111 5
b10111111 G
b11111 .
b11111 V
b11101 4
b11101 X
b10111111111111111111111111101 :
b10111111111111111111111111101 P
b11100 6
b11100 T
b101000 !
b101000 B
b101000 O
b101000 Q
#2405000
bx =
bx C
bx 0
bx K
bx Y
b0 1
b0 D
b0 Z
#2460000
1#
#2520000
b10101 '
0#
#2523000
0_
b100 ;
b100 S
b100 `
x)
bx "
bx A
bx U
b0 ]
bx ?
bx F
bx J
xR
b100 ^
b111 @
b111 E
b111 H
b11 +
b11 I
b11 [
0>
1<
0*
12
b1100 -
b1100 W
b10001100 ,
b10001100 \
b10110100000 5
b10110100000 G
b100 .
b100 V
b1100 4
b1100 X
b10110100000000000000000010001100 :
b10110100000000000000000010001100 P
bx 6
bx T
b11100 !
b11100 B
b11100 O
b11100 Q
#2525000
b100000 6
b100000 T
0R
0)
b0xx00 "
b0xx00 A
b0xx00 U
b1100 ?
b1100 F
b1100 J
b1100 =
b1100 C
b1100 0
b1100 K
b1100 Y
bx 1
bx D
bx Z
#2580000
1#
#2640000
b10110 '
0#
#2643000
x)
bx ?
bx F
bx J
x_
bx0x ;
bx0x S
bx0x `
bx "
bx A
bx U
b100100000001101 ^
b10 @
b10 E
b10 H
bz +
bz I
bz [
1/
09
0<
02
b1001 -
b1001 W
b11000010010000000110101101 ,
b11000010010000000110101101 \
b10001011000 5
b10001011000 G
b1101 .
b1101 V
b1101 4
b1101 X
b10001011000010010000000110101101 :
b10001011000010010000000110101101 P
b100100 6
b100100 T
b100000 !
b100000 B
b100000 O
b100000 Q
#2645000
0)
b100 "
b100 A
b100 U
b1 =
b1 C
b100 ?
b100 F
b100 J
b1 0
b1 K
b1 Y
b11 1
b11 D
b11 Z
#2700000
1#
#2760000
b10111 '
0#
#2763000
bx0xxx00 ;
bx0xxx00 S
bx0xxx00 `
b10 "
b10 A
b10 U
b10 ?
b10 F
b10 J
b100100000001100 ^
b110 @
b110 E
b110 H
b11000010010000000110001100 ,
b11000010010000000110001100 \
b11001011000 5
b11001011000 G
b1100 .
b1100 V
b1100 4
b1100 X
b11001011000010010000000110001100 :
b11001011000010010000000110001100 P
b101000 6
b101000 T
b100100 !
b100100 B
b100100 O
b100100 Q
#2765000
b1011 "
b1011 A
b1011 U
b1011 ?
b1011 F
b1011 J
b1100 1
b1100 D
b1100 Z
#2820000
1#
#2880000
b11000 '
0#
#2883000
b110000 ]
b110100101101001011010010110100101101001011010010110100101101001 ?
b110100101101001011010010110100101101001011010010110100101101001 F
b110100101101001011010010110100101101001011010010110100101101001 J
1_
b1111111111111111111111111111111111111111111111111111111111111101 ;
b1111111111111111111111111111111111111111111111111111111111111101 S
b1111111111111111111111111111111111111111111111111111111111111101 `
bx01 =
bx01 C
b0xx0x00x0xx0x00x0xx0x00x0xx0x00x0xx0x00x0xx0x00x0xx0x00x0xx0x00x "
b0xx0x00x0xx0x00x0xx0x00x0xx0x00x0xx0x00x0xx0x00x0xx0x00x0xx0x00x A
b0xx0x00x0xx0x00x0xx0x00x0xx0x00x0xx0x00x0xx0x00x0xx0x00x0xx0x00x U
1R
b1111111111111111000000000000000000000000000000000000000000000000 ^
bz @
bz E
bz H
b10 +
b10 I
b10 [
0/
z>
z9
z<
1*
z2
b111x1 -
b111x1 W
b11111111111111111111111101 ,
b11111111111111111111111101 \
b10111111 5
b10111111 G
b11111 .
b11111 V
b11101 4
b11101 X
b10111111111111111111111111101 :
b10111111111111111111111111101 P
b11100 6
b11100 T
b101000 !
b101000 B
b101000 O
b101000 Q
#2885000
bx =
bx C
bx 0
bx K
bx Y
b0 1
b0 D
b0 Z
#2940000
1#
#3000000
b11001 '
0#
#3003000
0_
b100 ;
b100 S
b100 `
x)
bx "
bx A
bx U
b0 ]
bx ?
bx F
bx J
xR
b100 ^
b111 @
b111 E
b111 H
b11 +
b11 I
b11 [
0>
1<
0*
12
b1100 -
b1100 W
b10001100 ,
b10001100 \
b10110100000 5
b10110100000 G
b100 .
b100 V
b1100 4
b1100 X
b10110100000000000000000010001100 :
b10110100000000000000000010001100 P
bx 6
bx T
b11100 !
b11100 B
b11100 O
b11100 Q
#3005000
b100000 6
b100000 T
0R
0)
b0x0xx "
b0x0xx A
b0x0xx U
b1011 ?
b1011 F
b1011 J
b1011 =
b1011 C
b1011 0
b1011 K
b1011 Y
bx 1
bx D
bx Z
#3060000
1#
#3120000
b11010 '
0#
#3123000
x)
bx ?
bx F
bx J
x_
bx0x ;
bx0x S
bx0x `
bx "
bx A
bx U
b100100000001101 ^
b10 @
b10 E
b10 H
bz +
bz I
bz [
1/
09
0<
02
b1001 -
b1001 W
b11000010010000000110101101 ,
b11000010010000000110101101 \
b10001011000 5
b10001011000 G
b1101 .
b1101 V
b1101 4
b1101 X
b10001011000010010000000110101101 :
b10001011000010010000000110101101 P
b100100 6
b100100 T
b100000 !
b100000 B
b100000 O
b100000 Q
#3125000
0)
b101 "
b101 A
b101 U
b1 =
b1 C
b101 ?
b101 F
b101 J
b1 0
b1 K
b1 Y
b100 1
b100 D
b100 Z
#3180000
1#
#3240000
b11011 '
0#
#3243000
bx0xxx00 ;
bx0xxx00 S
bx0xxx00 `
b11 "
b11 A
b11 U
b11 ?
b11 F
b11 J
b100100000001100 ^
b110 @
b110 E
b110 H
b11000010010000000110001100 ,
b11000010010000000110001100 \
b11001011000 5
b11001011000 G
b1100 .
b1100 V
b1100 4
b1100 X
b11001011000010010000000110001100 :
b11001011000010010000000110001100 P
b101000 6
b101000 T
b100100 !
b100100 B
b100100 O
b100100 Q
#3245000
b1010 "
b1010 A
b1010 U
b1010 ?
b1010 F
b1010 J
b1011 1
b1011 D
b1011 Z
#3300000
1#
#3360000
b11100 '
0#
#3363000
b110000 ]
b110100101101001011010010110100101101001011010010110100101101001 ?
b110100101101001011010010110100101101001011010010110100101101001 F
b110100101101001011010010110100101101001011010010110100101101001 J
1_
b1111111111111111111111111111111111111111111111111111111111111101 ;
b1111111111111111111111111111111111111111111111111111111111111101 S
b1111111111111111111111111111111111111111111111111111111111111101 `
bx01 =
bx01 C
b0xx0x00x0xx0x00x0xx0x00x0xx0x00x0xx0x00x0xx0x00x0xx0x00x0xx0x00x "
b0xx0x00x0xx0x00x0xx0x00x0xx0x00x0xx0x00x0xx0x00x0xx0x00x0xx0x00x A
b0xx0x00x0xx0x00x0xx0x00x0xx0x00x0xx0x00x0xx0x00x0xx0x00x0xx0x00x U
1R
b1111111111111111000000000000000000000000000000000000000000000000 ^
bz @
bz E
bz H
b10 +
b10 I
b10 [
0/
z>
z9
z<
1*
z2
b111x1 -
b111x1 W
b11111111111111111111111101 ,
b11111111111111111111111101 \
b10111111 5
b10111111 G
b11111 .
b11111 V
b11101 4
b11101 X
b10111111111111111111111111101 :
b10111111111111111111111111101 P
b11100 6
b11100 T
b101000 !
b101000 B
b101000 O
b101000 Q
#3365000
bx =
bx C
bx 0
bx K
bx Y
b0 1
b0 D
b0 Z
#3420000
1#
#3480000
b11101 '
0#
#3483000
0_
b100 ;
b100 S
b100 `
x)
bx "
bx A
bx U
b0 ]
bx ?
bx F
bx J
xR
b100 ^
b111 @
b111 E
b111 H
b11 +
b11 I
b11 [
0>
1<
0*
12
b1100 -
b1100 W
b10001100 ,
b10001100 \
b10110100000 5
b10110100000 G
b100 .
b100 V
b1100 4
b1100 X
b10110100000000000000000010001100 :
b10110100000000000000000010001100 P
bx 6
bx T
b11100 !
b11100 B
b11100 O
b11100 Q
#3485000
b100000 6
b100000 T
0R
0)
b0x0x0 "
b0x0x0 A
b0x0x0 U
b1010 ?
b1010 F
b1010 J
b1010 =
b1010 C
b1010 0
b1010 K
b1010 Y
bx 1
bx D
bx Z
#3540000
1#
#3600000
b11110 '
0#
#3603000
x)
bx ?
bx F
bx J
x_
bx0x ;
bx0x S
bx0x `
bx "
bx A
bx U
b100100000001101 ^
b10 @
b10 E
b10 H
bz +
bz I
bz [
1/
09
0<
02
b1001 -
b1001 W
b11000010010000000110101101 ,
b11000010010000000110101101 \
b10001011000 5
b10001011000 G
b1101 .
b1101 V
b1101 4
b1101 X
b10001011000010010000000110101101 :
b10001011000010010000000110101101 P
b100100 6
b100100 T
b100000 !
b100000 B
b100000 O
b100000 Q
#3605000
0)
b110 "
b110 A
b110 U
b1 =
b1 C
b110 ?
b110 F
b110 J
b1 0
b1 K
b1 Y
b101 1
b101 D
b101 Z
#3660000
1#
#3720000
b11111 '
0#
#3723000
bx0xxx00 ;
bx0xxx00 S
bx0xxx00 `
b100 "
b100 A
b100 U
b100 ?
b100 F
b100 J
b100100000001100 ^
b110 @
b110 E
b110 H
b11000010010000000110001100 ,
b11000010010000000110001100 \
b11001011000 5
b11001011000 G
b1100 .
b1100 V
b1100 4
b1100 X
b11001011000010010000000110001100 :
b11001011000010010000000110001100 P
b101000 6
b101000 T
b100100 !
b100100 B
b100100 O
b100100 Q
#3725000
b1001 "
b1001 A
b1001 U
b1001 ?
b1001 F
b1001 J
b1010 1
b1010 D
b1010 Z
#3780000
1#
#3840000
b100000 '
0#
#3843000
b110000 ]
b110100101101001011010010110100101101001011010010110100101101001 ?
b110100101101001011010010110100101101001011010010110100101101001 F
b110100101101001011010010110100101101001011010010110100101101001 J
1_
b1111111111111111111111111111111111111111111111111111111111111101 ;
b1111111111111111111111111111111111111111111111111111111111111101 S
b1111111111111111111111111111111111111111111111111111111111111101 `
bx01 =
bx01 C
b0xx0x00x0xx0x00x0xx0x00x0xx0x00x0xx0x00x0xx0x00x0xx0x00x0xx0x00x "
b0xx0x00x0xx0x00x0xx0x00x0xx0x00x0xx0x00x0xx0x00x0xx0x00x0xx0x00x A
b0xx0x00x0xx0x00x0xx0x00x0xx0x00x0xx0x00x0xx0x00x0xx0x00x0xx0x00x U
1R
b1111111111111111000000000000000000000000000000000000000000000000 ^
bz @
bz E
bz H
b10 +
b10 I
b10 [
0/
z>
z9
z<
1*
z2
b111x1 -
b111x1 W
b11111111111111111111111101 ,
b11111111111111111111111101 \
b10111111 5
b10111111 G
b11111 .
b11111 V
b11101 4
b11101 X
b10111111111111111111111111101 :
b10111111111111111111111111101 P
b11100 6
b11100 T
b101000 !
b101000 B
b101000 O
b101000 Q
#3845000
bx =
bx C
bx 0
bx K
bx Y
b0 1
b0 D
b0 Z
#3900000
1#
#3960000
b100001 '
0#
#3963000
0_
b100 ;
b100 S
b100 `
x)
bx "
bx A
bx U
b0 ]
bx ?
bx F
bx J
xR
b100 ^
b111 @
b111 E
b111 H
b11 +
b11 I
b11 [
0>
1<
0*
12
b1100 -
b1100 W
b10001100 ,
b10001100 \
b10110100000 5
b10110100000 G
b100 .
b100 V
b1100 4
b1100 X
b10110100000000000000000010001100 :
b10110100000000000000000010001100 P
bx 6
bx T
b11100 !
b11100 B
b11100 O
b11100 Q
#3965000
b100000 6
b100000 T
0R
0)
b0x00x "
b0x00x A
b0x00x U
b1001 ?
b1001 F
b1001 J
b1001 =
b1001 C
b1001 0
b1001 K
b1001 Y
bx 1
bx D
bx Z
#4020000
1#
#4080000
b100010 '
0#
